ro/ase/andrei/message_service/UpdateMessageRequest.class
ro/ase/andrei/message_service/GetMessageByIdRequest.class
ro/ase/andrei/message_service/GetAllMessagesResponse.class
ro/ase/andrei/message_service/UpdateMessageResponse.class
ro/ase/andrei/message_service/GetMessageByIdResponse.class
ro/ase/andrei/message_service/AddMessageRequest.class
ro/ase/andrei/message_service/ObjectFactory.class
ro/ase/andrei/message_service/DeleteMessageRequest.class
messages/Application.class
ro/ase/andrei/message_service/AddMessageResponse.class
ro/ase/andrei/message_service/GetAllMessagesRequest.class
ro/ase/andrei/message_service/package-info.class
messages/entities/Email.class
messages/repositories/EmailRepository.class
ro/ase/andrei/message_service/MessageInfo.class
ro/ase/andrei/message_service/ServiceStatus.class
ro/ase/andrei/message_service/DeleteMessageResponse.class
