/home/null/IdeaProjects/hellosoaplive/src/main/java/ro/ase/andrei/greeting_service/GetGreetingRequest.java
/home/null/IdeaProjects/hellosoaplive/src/main/java/hello/Application.java
/home/null/IdeaProjects/hellosoaplive/src/main/java/ro/ase/andrei/greeting_service/ObjectFactory.java
/home/null/IdeaProjects/hellosoaplive/src/main/java/hello/GreetingEndpoint.java
/home/null/IdeaProjects/hellosoaplive/src/main/java/hello/GreetingRepository.java
/home/null/IdeaProjects/hellosoaplive/src/main/java/ro/ase/andrei/greeting_service/Greeting.java
/home/null/IdeaProjects/hellosoaplive/src/main/java/ro/ase/andrei/greeting_service/package-info.java
/home/null/IdeaProjects/hellosoaplive/src/main/java/ro/ase/andrei/greeting_service/GetGreetingResponse.java
